{"location_label": "gym", "long": -75.75078649375102, "user": "109", "outdoors": "default", "lat": 39.68355521993033, "time": "2017-05-11T09:14:37.933-0400"}
{"location_label": "school", "long": -75.75532972596706, "user": "109", "outdoors": "default", "lat": 39.6831963265804, "time": "2017-05-11T10:56:55.997-0400"}
{"location_label": "school", "long": -75.75118626495487, "user": "109", "outdoors": "default", "lat": 39.68449051198513, "time": "2017-05-11T12:40:59.841-0400"}
{"location_label": "trabant", "long": -75.75401165881495, "user": "109", "outdoors": false, "lat": 39.68228892140674, "time": "2017-05-11T14:02:19.413-0400"}
{"location_label": "home", "long": -75.75023252524039, "user": "109", "outdoors": "default", "lat": 39.68720548324258, "time": "2017-05-11T17:17:52.000-0400"}
