{"location_label": "home", "long": -75.75019564486644, "user": "109", "outdoors": "default", "lat": 39.68713381797046, "time": "2017-05-07T14:07:54.001-0400"}
{"location_label": "grocery store", "long": -75.72371240335984, "user": "109", "outdoors": false, "lat": 39.66239639141895, "time": "2017-05-07T16:21:28.638-0400"}
{"location_label": "grocery store", "long": -75.72371240335984, "user": "109", "outdoors": false, "lat": 39.66239639141895, "time": "2017-05-07T16:21:28.638-0400"}
