{"speed": -1, "lat": 39.66556942773803, "user": "403", "long": -75.75408774586361, "time": "2017-06-27T12:42:55.906-0400"}
{"speed": 1.659999966621399, "lat": 39.72973266154502, "user": "403", "long": -75.56287377148453, "time": "2017-06-27T17:04:15.000-0400"}
{"speed": 1.799999952316284, "lat": 39.72955471374069, "user": "403", "long": -75.562536735158, "time": "2017-06-27T17:21:26.000-0400"}
{"speed": 8.99980422120574e-05, "lat": 39.7297744734862, "user": "403", "long": -75.56294383698541, "time": "2017-06-27T18:15:30.000-0400"}
{"speed": 7.909999847412109, "lat": 39.73993809189959, "user": "403", "long": -75.55751897198455, "time": "2017-06-27T18:25:55.000-0400"}
{"speed": 2.75, "lat": 39.76163917224832, "user": "403", "long": -75.56556863717321, "time": "2017-06-27T18:37:40.000-0400"}
{"speed": -1, "lat": 39.76170204549884, "user": "403", "long": -75.56550123248765, "time": "2017-06-27T19:49:06.004-0400"}
