{"speed": 0.3899999856948853, "lat": 39.7049657302347, "time": "2017-06-04T14:13:50.503-0400", "long": -75.77742283239567, "user": "301"}
{"speed": 0, "lat": 39.71539139285657, "time": "2017-06-04T14:30:26.167-0400", "long": -75.76037253260218, "user": "301"}
{"speed": 1.879999995231628, "lat": 39.72424297597234, "time": "2017-06-04T14:41:16.000-0400", "long": -75.76712943620585, "user": "301"}
{"speed": 4.980000019073486, "lat": 39.73793691027885, "time": "2017-06-04T14:51:17.000-0400", "long": -75.76800274669729, "user": "301"}
{"speed": -1, "lat": 39.68477640639929, "time": "2017-06-04T16:11:59.490-0400", "long": -75.7440182220096, "user": "301"}
{"speed": -1, "lat": 39.68899097014629, "time": "2017-06-04T16:50:47.550-0400", "long": -75.7520318107401, "user": "301"}
{"speed": 5.409999847412109, "lat": 39.70400890787499, "time": "2017-06-04T17:00:51.998-0400", "long": -75.75612822993952, "user": "301"}
{"speed": 2.589999914169312, "lat": 39.71513050612035, "time": "2017-06-04T17:17:39.000-0400", "long": -75.76022157452606, "user": "301"}
{"speed": 16.29999923706055, "lat": 39.67158119537632, "time": "2017-06-04T17:27:41.000-0400", "long": -75.75340129673354, "user": "301"}
{"speed": 20.15999984741211, "lat": 39.60928361210925, "time": "2017-06-04T17:37:41.000-0400", "long": -75.71577509044353, "user": "301"}
{"speed": 7.679999828338623, "lat": 39.56457748547156, "time": "2017-06-04T17:47:45.000-0400", "long": -75.65377299680901, "user": "301"}
