{"lat": 39.57423344158502, "user": "201", "speed": -1, "time": "2017-05-22T15:05:13.545-0400", "long": -75.66030518710757}
{"lat": 39.57145912800808, "user": "201", "speed": -1, "time": "2017-05-22T15:15:19.647-0400", "long": -75.65970007386377}
{"lat": 39.57421424336692, "user": "201", "speed": 1.019999980926514, "time": "2017-05-22T15:26:11.000-0400", "long": -75.65843408934367}
{"lat": 39.59366664739981, "user": "201", "speed": 12.89999961853027, "time": "2017-05-22T15:36:13.000-0400", "long": -75.69999550381401}
{"lat": 39.65999761600015, "user": "201", "speed": 11.26000022888184, "time": "2017-05-22T15:46:15.000-0400", "long": -75.73549898348351}
{"lat": 39.68269459441274, "user": "201", "speed": 0.75, "time": "2017-05-22T15:57:29.000-0400", "long": -75.74805758900544}
{"lat": 39.68352959960669, "user": "201", "speed": 0.8199999928474426, "time": "2017-05-22T16:09:22.000-0400", "long": -75.75029488659999}
