{"user": "110", "long": -75.7517400105258, "speed": 2.509999990463257, "lat": 39.6847199555856, "time": "2017-05-05T16:29:56.000-0400"}
{"user": "110", "long": -75.76104057028495, "speed": 2.720000028610229, "lat": 39.6786281979081, "time": "2017-05-05T16:40:09.000-0400"}
{"user": "110", "long": -75.76037876670728, "speed": -1, "lat": 39.67823015753166, "time": "2017-05-05T18:04:36.149-0400"}
