{"user": "110", "long": -75.765642457424, "speed": -1, "lat": 39.67761470020579, "time": "2017-05-06T12:11:21.784-0400"}
{"user": "110", "long": -75.76445728547476, "speed": 0.1599999964237213, "lat": 39.67729191299497, "time": "2017-05-06T12:22:44.000-0400"}
{"user": "110", "long": -75.76176416901126, "speed": -1, "lat": 39.67130833755296, "time": "2017-05-06T12:34:26.243-0400"}
{"user": "110", "long": -75.76026549569868, "speed": 0, "lat": 39.678140329234, "time": "2017-05-06T13:45:18.000-0400"}
{"user": "110", "long": -75.7601759769728, "speed": 0.8999999761581421, "lat": 39.67800173446506, "time": "2017-05-06T13:57:10.000-0400"}
{"user": "110", "long": -75.74584497570619, "speed": -1, "lat": 39.67869069902709, "time": "2017-05-06T15:32:14.147-0400"}
{"user": "110", "long": -75.75029998970834, "speed": -1, "lat": 39.68150979712811, "time": "2017-05-06T15:44:56.298-0400"}
{"user": "110", "long": -75.74580962652725, "speed": -1, "lat": 39.67886549864375, "time": "2017-05-06T16:10:41.562-0400"}
{"user": "110", "long": -75.74556493982541, "speed": -1, "lat": 39.67852947730945, "time": "2017-05-06T16:24:49.503-0400"}
{"user": "110", "long": -75.7467310114572, "speed": -1, "lat": 39.67925403202599, "time": "2017-05-06T16:45:16.235-0400"}
{"user": "110", "long": -75.75403060782148, "speed": -1, "lat": 39.68341924508109, "time": "2017-05-06T16:55:30.897-0400"}
