{"speed": -1, "user": "110", "long": -75.751176104203, "time": "2017-05-09T09:25:00.014-0400", "lat": 39.684477948325}
{"speed": -1, "user": "110", "long": -75.76012090762394, "time": "2017-05-09T10:45:16.095-0400", "lat": 39.6794546085715}
{"speed": -1, "user": "110", "long": -75.75340987406254, "time": "2017-05-09T13:59:10.291-0400", "lat": 39.6805756276875}
{"speed": -1, "user": "110", "long": -75.75873485457257, "time": "2017-05-09T16:32:42.040-0400", "lat": 39.6807053495818}
{"speed": 0, "user": "110", "long": -75.75158955536386, "time": "2017-05-09T18:52:52.165-0400", "lat": 39.68324025630921}
{"speed": -1, "user": "110", "long": -75.74970285178463, "time": "2017-05-09T21:42:44.472-0400", "lat": 39.67678708584563}
{"speed": -1, "user": "110", "long": -75.76011526415918, "time": "2017-05-09T23:09:42.760-0400", "lat": 39.67925290464546}
