{"speed": -1, "user": "104", "long": -75.74570530074136, "time": "2017-05-08T06:45:01.623-0400", "lat": 39.68093208225871}
{"speed": -1, "user": "104", "long": -75.74645391974992, "time": "2017-05-08T07:44:51.044-0400", "lat": 39.68106411130444}
{"speed": -1, "user": "104", "long": -75.75465112957929, "time": "2017-05-08T07:59:47.677-0400", "lat": 39.67989257029466}
{"speed": -1, "user": "104", "long": -75.75255929701534, "time": "2017-05-08T08:16:12.566-0400", "lat": 39.68422421690418}
{"speed": -1, "user": "104", "long": -75.75256382811683, "time": "2017-05-08T09:35:59.871-0400", "lat": 39.68425183385077}
{"speed": -1, "user": "104", "long": -75.7524796264085, "time": "2017-05-08T09:46:49.104-0400", "lat": 39.68418353621382}
{"speed": -1, "user": "104", "long": -75.75254278963835, "time": "2017-05-08T10:09:22.634-0400", "lat": 39.6842299654886}
{"speed": -1, "user": "104", "long": -75.75254463814794, "time": "2017-05-08T10:55:56.917-0400", "lat": 39.68419342955237}
{"speed": -1, "user": "104", "long": -75.74404781431512, "time": "2017-05-08T11:15:33.646-0400", "lat": 39.67961571420406}
{"speed": -1, "user": "104", "long": -75.72860356078904, "time": "2017-05-08T12:53:10.166-0400", "lat": 39.60570989553605}
{"speed": 1.470000028610229, "user": "104", "long": -75.72887769907315, "time": "2017-05-08T13:04:29.000-0400", "lat": 39.6057708096128}
{"speed": 13.69999980926514, "user": "104", "long": -75.73374582461615, "time": "2017-05-08T13:14:29.000-0400", "lat": 39.65444783218172}
{"speed": 11.88000011444092, "user": "104", "long": -75.7367892098387, "time": "2017-05-08T13:24:30.999-0400", "lat": 39.66343256182937}
{"speed": 7.429999828338623, "user": "104", "long": -75.74450139894685, "time": "2017-05-08T13:34:35.000-0400", "lat": 39.67973335184127}
{"speed": -1, "user": "104", "long": -75.75193632538833, "time": "2017-05-08T14:44:41.309-0400", "lat": 39.68278067909455}
{"speed": -1, "user": "104", "long": -75.74378572795297, "time": "2017-05-08T20:06:17.457-0400", "lat": 39.67945773881934}
