{"speed": 0, "lat": 39.60266363810711, "user": "307", "long": -75.80120036385563, "time": "2017-06-18T14:06:19.754-0400"}
{"speed": 1.450000047683716, "lat": 39.64144984729555, "user": "307", "long": -75.72174503475028, "time": "2017-06-18T15:07:36.000-0400"}
{"speed": 2.430000066757202, "lat": 39.64166425637868, "user": "307", "long": -75.72175936780471, "time": "2017-06-18T15:17:44.000-0400"}
{"speed": 1.269999980926514, "lat": 39.64309961538729, "user": "307", "long": -75.7221034449299, "time": "2017-06-18T15:34:54.000-0400"}
{"speed": 1.470000028610229, "lat": 39.64290993291851, "user": "307", "long": -75.7213039790054, "time": "2017-06-18T15:45:11.000-0400"}
{"speed": -1, "lat": 39.64457437444959, "user": "307", "long": -75.72196716052258, "time": "2017-06-18T16:02:13.597-0400"}
