{"outdoors": "default", "user": "401", "time": "2017-07-01T11:55:37.000-0400", "lat": 39.76158879701025, "long": -75.56144239387993, "location_label": "restaurant"}
{"outdoors": true, "user": "401", "time": "2017-07-01T12:30:09.000-0400", "lat": 39.81002777352911, "long": -75.75438927866122, "location_label": "farmer's market "}
{"outdoors": true, "user": "401", "time": "2017-07-01T15:37:36.646-0400", "lat": 39.68042672937494, "long": -75.73454626493087, "location_label": "store--kmart"}
{"outdoors": "default", "user": "401", "time": "2017-07-01T17:16:47.000-0400", "lat": 39.68112122736841, "long": -75.75713795616828, "location_label": "home--someone else"}
{"outdoors": "default", "user": "401", "time": "2017-07-01T18:18:27.101-0400", "lat": 39.6830854260562, "long": -75.74567264968526, "location_label": "restaurant"}
