{"location_label": "school", "long": -75.75250666224126, "user": "106", "lat": 39.68114911221326, "outdoors": "default", "time": "2017-05-08T10:03:15.621-0400"}
{"location_label": "work", "long": -75.74821235564677, "user": "106", "lat": 39.68325382192354, "outdoors": "default", "time": "2017-05-08T10:42:26.205-0400"}
{"location_label": "school", "long": -75.75635246399438, "user": "106", "lat": 39.68249447810527, "outdoors": "default", "time": "2017-05-08T14:42:07.350-0400"}
