{"lat": 39.68423841444764, "user": "206", "speed": -1, "time": "2017-05-20T17:14:07.022-0400", "long": -75.75257409360768}
{"lat": 39.68423779519993, "user": "206", "speed": -1, "time": "2017-05-20T17:33:46.931-0400", "long": -75.75256863915111}
{"lat": 39.68413339000166, "user": "206", "speed": 0.3100000023841858, "time": "2017-05-20T17:46:48.000-0400", "long": -75.75262966572842}
{"lat": 39.6854340518263, "user": "206", "speed": 1.919999957084656, "time": "2017-05-20T17:59:43.000-0400", "long": -75.7543976605644}
