{"speed": 0, "lat": 39.7488770960269, "time": "2017-06-14T11:57:22.000-0400", "long": -75.55865884765569, "user": "306"}
{"speed": -1, "lat": 39.74777290550097, "time": "2017-06-14T12:22:54.715-0400", "long": -75.55950583450564, "user": "306"}
{"speed": 0.449999988079071, "lat": 39.76196061823494, "user": "306", "long": -75.56519530720595, "time": "2017-06-14T21:52:07.000-0400"}
