{"lat": 39.68713467739731, "user": "203", "speed": 8.670000076293945, "time": "2017-05-18T13:54:47.000-0400", "long": -75.67372529404946}
{"lat": 39.68710825316579, "user": "203", "speed": 2.799999952316284, "time": "2017-05-18T14:06:45.000-0400", "long": -75.67274962558939}
{"lat": 39.66697902888028, "user": "203", "speed": 1.350000023841858, "time": "2017-05-18T14:23:23.000-0400", "long": -75.66533776007189}
{"lat": 39.66718369864603, "user": "203", "speed": -1, "time": "2017-05-18T14:34:08.002-0400", "long": -75.66622246469886}
{"lat": 39.71474762887371, "user": "203", "speed": -1, "time": "2017-05-18T15:44:59.582-0400", "long": -75.7409479979971}
{"lat": 39.71088142603609, "user": "203", "speed": 1.419999957084656, "time": "2017-05-18T15:55:44.000-0400", "long": -75.74303833774826}
{"lat": 39.71595314800712, "user": "203", "speed": 0.7799999713897705, "time": "2017-05-18T16:06:22.000-0400", "long": -75.73906129233141}
