{"outdoors": "default", "user": "403", "time": "2017-06-27T12:42:55.923-0400", "lat": 39.66556942773803, "long": -75.75408774586361, "location_label": "work"}
{"outdoors": "default", "user": "403", "time": "2017-06-27T12:42:55.923-0400", "lat": 39.66556942773803, "long": -75.75408774586361, "location_label": "work"}
{"outdoors": "default", "user": "403", "time": "2017-06-27T17:05:39.000-0400", "lat": 39.72977775618408, "long": -75.56275927468721, "location_label": "gym"}
{"outdoors": "default", "user": "403", "time": "2017-06-27T19:49:44.004-0400", "lat": 39.76171297490574, "long": -75.56521316065971, "location_label": "home"}
