{"speed": -1, "lat": 39.67143531797165, "time": "2017-06-03T00:48:56.841-0400", "long": -75.76091714374905, "user": "303"}
{"speed": 34.95999908447266, "lat": 39.55996094275225, "time": "2017-06-03T09:04:21.000-0400", "long": -76.1497414392197, "user": "303"}
{"speed": 30.79999923706055, "lat": 39.44361532312215, "time": "2017-06-03T09:14:22.000-0400", "long": -76.33910792549268, "user": "303"}
{"speed": 33.02000045776367, "lat": 39.33726724475238, "time": "2017-06-03T09:24:22.000-0400", "long": -76.5160725586375, "user": "303"}
{"speed": 29.42000007629395, "lat": 39.27031104049088, "time": "2017-06-03T09:34:23.000-0400", "long": -76.63900046659761, "user": "303"}
{"speed": 10.0600004196167, "lat": 39.16546637824035, "time": "2017-06-03T09:44:24.000-0400", "long": -76.81168199037134, "user": "303"}
{"speed": 32.63999938964844, "lat": 39.16031725344781, "time": "2017-06-03T09:54:25.000-0400", "long": -76.8882700337259, "user": "303"}
{"speed": 29.90999984741211, "lat": 39.06365508644343, "time": "2017-06-03T10:04:25.000-0400", "long": -76.91468855904314, "user": "303"}
{"speed": 3.349999904632568, "lat": 39.0117058111718, "time": "2017-06-03T10:14:26.000-0400", "long": -76.90866619355688, "user": "303"}
{"speed": 0.6299999952316284, "lat": 39.01112959723827, "time": "2017-06-03T10:24:35.000-0400", "long": -76.91118252470801, "user": "303"}
{"speed": -1, "lat": 38.92867768468407, "time": "2017-06-03T11:00:22.679-0400", "long": -77.03298277917801, "user": "303"}
{"speed": 0.6000000238418579, "lat": 38.89397590424763, "time": "2017-06-03T11:14:11.988-0400", "long": -77.02244105756006, "user": "303"}
{"speed": 1.25, "lat": 38.89194094579563, "time": "2017-06-03T11:24:25.000-0400", "long": -77.02531906783304, "user": "303"}
{"speed": 0.9700000286102295, "lat": 38.89193151615456, "time": "2017-06-03T11:34:56.000-0400", "long": -77.03352956108472, "user": "303"}
{"speed": -1, "lat": 38.95177637467798, "time": "2017-06-03T15:34:06.467-0400", "long": -77.00269974343242, "user": "303"}
{"speed": 4.21999979019165, "lat": 38.97797003392035, "time": "2017-06-03T15:44:08.000-0400", "long": -76.92833223387312, "user": "303"}
{"speed": -1, "lat": 39.67159520115934, "time": "2017-06-03T17:42:24.597-0400", "long": -75.76069178654346, "user": "303"}
