{"speed": -1, "lat": 39.68054337130773, "user": "310", "long": -75.75394062915736, "time": "2017-06-20T11:51:16.061-0400"}
{"speed": 1.470000028610229, "lat": 39.68331037092924, "user": "310", "long": -75.75018315583071, "time": "2017-06-20T12:01:32.000-0400"}
{"speed": 1.220000028610229, "lat": 39.68335014305979, "user": "310", "long": -75.74929350062808, "time": "2017-06-20T12:13:27.000-0400"}
{"speed": -1, "lat": 39.68378993530753, "user": "310", "long": -75.74766559478444, "time": "2017-06-20T12:51:54.133-0400"}
{"speed": 1.320000052452087, "lat": 39.68110861260414, "user": "310", "long": -75.74946700602374, "time": "2017-06-20T13:01:55.000-0400"}
{"speed": 0.9599999785423279, "lat": 39.6806684788686, "user": "310", "long": -75.75239907957217, "time": "2017-06-20T13:12:07.000-0400"}
{"speed": -1, "lat": 39.67708354380034, "user": "310", "long": -75.76273277273356, "time": "2017-06-20T18:15:24.594-0400"}
