{"speed": 0, "user": "102", "long": -75.60630158528276, "time": "2017-05-07T14:32:35.691-0400", "lat": 39.27448593549363}
{"speed": 1.309999942779541, "user": "102", "long": -75.60399664572962, "time": "2017-05-07T18:15:16.000-0400", "lat": 39.27906748376719}
{"speed": 1.220000028610229, "user": "102", "long": -75.60811760842391, "time": "2017-05-07T18:25:29.000-0400", "lat": 39.27705964077197}
{"speed": 0.5099999904632568, "user": "102", "long": -75.60640174902566, "time": "2017-05-07T18:41:19.000-0400", "lat": 39.27471199542217}
{"speed": -1, "user": "102", "long": -75.5968704217473, "time": "2017-05-07T18:52:08.051-0400", "lat": 39.27116264884832}
