{"user": "502", "long": -74.61916974014001, "time": "2017-07-09T09:25:18.755-0400", "lat": 39.44445697338585, "speed": -1}
{"user": "502", "long": -74.44268379890303, "time": "2017-07-09T09:35:20.000-0400", "lat": 39.36196872898298, "speed": 16.57999992370605}
{"user": "502", "long": -74.4168418420686, "time": "2017-07-09T13:03:57.637-0400", "lat": 39.3846906333473, "speed": -1}
{"user": "502", "long": -74.40828622325733, "time": "2017-07-09T13:14:01.000-0400", "lat": 39.37741319186927, "speed": 0.949999988079071}
{"user": "502", "long": -74.41353815614657, "time": "2017-07-09T13:24:28.000-0400", "lat": 39.38037787102105, "speed": 1.070000052452087}
{"user": "502", "long": -75.30935329215949, "time": "2017-07-09T17:28:48.000-0400", "lat": 39.86867943590475, "speed": 30.57999992370605}
{"user": "502", "long": -75.39483983214454, "time": "2017-07-09T17:38:50.000-0400", "lat": 39.84415718795962, "speed": 13.85000038146973}
{"user": "502", "long": -75.4831187556403, "time": "2017-07-09T17:48:51.000-0400", "lat": 39.86159144042276, "speed": 23.1200008392334}
{"user": "502", "long": -75.56640515110973, "time": "2017-07-09T17:58:52.000-0400", "lat": 39.90443591497829, "speed": 23.57999992370605}
{"user": "502", "long": -75.60980389402359, "time": "2017-07-09T18:08:52.000-0400", "lat": 39.97537784162999, "speed": 27.67000007629395}
