{"user": "502", "long": -75.61388213763142, "time": "2017-07-10T07:01:54.021-0400", "lat": 39.98442544164385, "speed": -1}
{"user": "502", "long": -75.61349786825069, "time": "2017-07-10T07:16:04.000-0400", "lat": 39.98436071448027, "speed": 6.769999980926514}
{"user": "502", "long": -75.6189207081456, "time": "2017-07-10T07:26:29.000-0400", "lat": 39.97768348086623, "speed": 5.960000038146973}
{"user": "502", "long": -75.611337336154, "time": "2017-07-10T07:36:30.000-0400", "lat": 39.93789248585252, "speed": 16.93000030517578}
{"user": "502", "long": -75.6623440523701, "time": "2017-07-10T07:46:30.000-0400", "lat": 39.86873504584342, "speed": 8.640000343322754}
{"user": "502", "long": -75.70600890895074, "time": "2017-07-10T07:56:31.000-0400", "lat": 39.82153604939792, "speed": 17.6299991607666}
{"user": "502", "long": -75.72386674163229, "time": "2017-07-10T08:06:32.000-0400", "lat": 39.74157837618291, "speed": 20.02000045776367}
{"user": "502", "long": -75.75440031922155, "time": "2017-07-10T08:16:36.380-0400", "lat": 39.68562417612816, "speed": -1}
{"user": "502", "long": -75.75176854140454, "time": "2017-07-10T11:03:20.078-0400", "lat": 39.68412619916205, "speed": -1}
