{"user": "101", "long": -76.36318911880574, "speed": -1, "lat": 40.08707323498317, "time": "2017-05-06T08:51:07.334-0400"}
{"user": "101", "long": -76.3357344456728, "speed": 6.659999847412109, "lat": 40.09096775207677, "time": "2017-05-06T09:05:33.000-0400"}
{"user": "101", "long": -76.31019026048138, "speed": 14.1899995803833, "lat": 40.05123908169572, "time": "2017-05-06T09:15:34.000-0400"}
{"user": "101", "long": -76.31534391531068, "speed": -1, "lat": 40.03987443728549, "time": "2017-05-06T10:29:41.933-0400"}
{"user": "101", "long": -76.30682442344381, "speed": 0.1700000017881393, "lat": 40.03981991209093, "time": "2017-05-06T10:39:51.000-0400"}
{"user": "101", "long": -76.3070056686135, "speed": -1, "lat": 40.03855422917321, "time": "2017-05-06T11:32:39.095-0400"}
{"user": "101", "long": -76.30650733604683, "speed": 0.2099999934434891, "lat": 40.03857658248398, "time": "2017-05-06T11:45:13.000-0400"}
{"user": "101", "long": -76.31875900481396, "speed": -1, "lat": 40.04125742870921, "time": "2017-05-06T12:26:40.776-0400"}
{"user": "101", "long": -76.31600730128243, "speed": 1.820000052452087, "lat": 40.04150216005746, "time": "2017-05-06T12:48:03.000-0400"}
{"user": "101", "long": -76.31872488794865, "speed": -1, "lat": 40.04134901124292, "time": "2017-05-06T13:04:59.075-0400"}
{"user": "101", "long": -76.32063654258505, "speed": 0.239999994635582, "lat": 40.03803909294311, "time": "2017-05-06T14:23:04.112-0400"}
{"user": "101", "long": -76.32065749734298, "speed": 1.789999961853027, "lat": 40.03770251762126, "time": "2017-05-06T14:37:58.000-0400"}
{"user": "101", "long": -76.33268376819447, "speed": 1.100000023841858, "lat": 40.08830046284952, "time": "2017-05-06T17:14:03.000-0400"}
{"user": "101", "long": -76.33562154143708, "speed": 0.9200000166893005, "lat": 40.08534471042462, "time": "2017-05-06T17:24:21.000-0400"}
