{"location_label": "work", "long": -75.7507450484814, "user": "110", "lat": 39.66743004997735, "outdoors": "default", "time": "2017-05-12T08:28:51.236-0400"}
{"location_label": "school", "long": -75.74911253533861, "user": "110", "lat": 39.67528436336636, "outdoors": "default", "time": "2017-05-12T12:08:14.000-0400"}
{"location_label": "home", "long": -75.76027245267831, "user": "110", "lat": 39.67812775637924, "outdoors": "default", "time": "2017-05-12T12:38:38.000-0400"}
{"location_label": "UDairy", "long": -75.75442280627391, "user": "110", "lat": 39.68006162907898, "outdoors": false, "time": "2017-05-12T17:19:30.000-0400"}
{"location_label": "concert (green)", "long": -75.75429590425989, "user": "110", "lat": 39.68007587831438, "outdoors": false, "time": "2017-05-12T17:19:37.000-0400"}
{"location_label": "concert (green)", "long": -75.7540430222412, "user": "110", "lat": 39.68008664905995, "outdoors": false, "time": "2017-05-12T17:19:51.000-0400"}
{"location_label": "home", "long": -75.76012551791571, "user": "110", "lat": 39.67802486851781, "outdoors": "default", "time": "2017-05-12T18:32:52.000-0400"}
