{"location_label": "school", "long": -75.75246690255368, "user": "110", "lat": 39.68420146379524, "outdoors": "default", "time": "2017-05-11T09:20:19.798-0400"}
{"location_label": "home", "long": -75.75732436969481, "user": "110", "lat": 39.67945109125197, "outdoors": "default", "time": "2017-05-11T10:48:41.000-0400"}
{"location_label": "school", "long": -75.65861304960667, "user": "110", "lat": 39.72352597208373, "outdoors": "default", "time": "2017-05-11T11:41:48.878-0400"}
{"location_label": "home", "long": -75.76031587093674, "user": "110", "lat": 39.67798450965404, "outdoors": "default", "time": "2017-05-11T14:50:20.904-0400"}
{"location_label": "school", "long": -75.75510283744053, "user": "110", "lat": 39.6831211240778, "outdoors": "default", "time": "2017-05-11T15:21:49.203-0400"}
{"location_label": "Stone Balloon", "long": -75.7456845009133, "user": "110", "lat": 39.67859152075975, "outdoors": false, "time": "2017-05-11T17:03:51.824-0400"}
{"location_label": "school", "long": -75.75399952016375, "user": "110", "lat": 39.68317165043175, "outdoors": "default", "time": "2017-05-11T18:00:54.010-0400"}
{"location_label": "home", "long": -75.76021805412672, "user": "110", "lat": 39.67807553712248, "outdoors": "default", "time": "2017-05-11T18:33:54.998-0400"}
{"location_label": "UDairy", "long": -75.75305034448272, "user": "110", "lat": 39.66832365970581, "outdoors": false, "time": "2017-05-11T20:33:13.000-0400"}
{"location_label": "home", "long": -75.76034847654007, "user": "110", "lat": 39.67801594179093, "outdoors": "default", "time": "2017-05-11T20:46:44.000-0400"}
