{"speed": -1, "lat": 38.74428226354502, "user": "405", "long": -75.15389647598478, "time": "2017-07-02T10:06:44.270-0400"}
{"speed": 0.3499999940395355, "lat": 38.73401390392215, "user": "405", "long": -75.14027765959048, "time": "2017-07-02T10:17:45.000-0400"}
{"speed": -1, "lat": 38.73396682770959, "user": "405", "long": -75.14041290271261, "time": "2017-07-02T10:38:10.071-0400"}
{"speed": 3.549999952316284, "lat": 38.73342574577661, "user": "405", "long": -75.13627429499769, "time": "2017-07-02T10:48:11.000-0400"}
{"speed": 1.980000019073486, "lat": 38.72449646241844, "user": "405", "long": -75.12468103326403, "time": "2017-07-02T10:58:17.000-0400"}
{"speed": 16.64999961853027, "lat": 38.70310421105354, "user": "405", "long": -75.0842308905675, "time": "2017-07-02T11:08:18.000-0400"}
{"speed": -1, "lat": 38.70016581033936, "user": "405", "long": -75.0759247841903, "time": "2017-07-02T11:49:03.201-0400"}
{"speed": -1, "lat": 38.69818756978293, "user": "405", "long": -75.08251983157204, "time": "2017-07-02T16:03:15.502-0400"}
