{"speed": 30.65999984741211, "lat": 39.32527435947146, "user": "405", "long": -75.6154160667915, "time": "2017-06-30T12:07:48.000-0400"}
{"speed": 34.68999862670898, "lat": 39.47956805586766, "user": "405", "long": -75.64992377541554, "time": "2017-06-30T12:17:49.000-0400"}
{"speed": 15.61999988555908, "lat": 39.58915756171464, "user": "405", "long": -75.69257911986526, "time": "2017-06-30T12:27:50.000-0400"}
{"speed": 8.289999961853027, "lat": 39.65059747445474, "user": "405", "long": -75.73247467992617, "time": "2017-06-30T12:38:03.000-0400"}
{"speed": 1.309999942779541, "lat": 39.67852430421829, "user": "405", "long": -75.74859009131393, "time": "2017-06-30T12:49:01.000-0400"}
{"speed": -1, "lat": 39.67842210337566, "user": "405", "long": -75.74888872053367, "time": "2017-06-30T15:20:14.460-0400"}
{"speed": 0.7599999904632568, "lat": 39.6786242165041, "user": "405", "long": -75.7485757582595, "time": "2017-06-30T15:31:14.000-0400"}
{"speed": 2.609999895095825, "lat": 39.67518382243782, "user": "405", "long": -75.74333882897696, "time": "2017-06-30T15:41:21.000-0400"}
{"speed": 2.519999980926514, "lat": 39.67776448469579, "user": "405", "long": -75.73220824829836, "time": "2017-06-30T15:51:28.000-0400"}
{"speed": 2.579999923706055, "lat": 39.67347064524859, "user": "405", "long": -75.74290741242072, "time": "2017-06-30T16:01:34.000-0400"}
{"speed": 2.440000057220459, "lat": 39.66889605395465, "user": "405", "long": -75.75841091580294, "time": "2017-06-30T16:11:36.000-0400"}
{"speed": 2.319999933242798, "lat": 39.67203448995917, "user": "405", "long": -75.74882981374463, "time": "2017-06-30T16:21:44.000-0400"}
{"speed": 6.400000095367432, "lat": 39.68353579849107, "user": "405", "long": -75.74546095831403, "time": "2017-06-30T16:38:32.000-0400"}
{"speed": 21.46999931335449, "lat": 39.72978819165353, "user": "405", "long": -75.7135689073016, "time": "2017-06-30T16:48:32.000-0400"}
