{"speed": 21.06999969482422, "lat": 39.75991245828546, "user": "401", "long": -75.60772994540223, "time": "2017-07-01T12:05:37.000-0400"}
{"speed": 16.64999961853027, "lat": 39.79686567097883, "user": "401", "long": -75.72071917362112, "time": "2017-07-01T12:15:38.000-0400"}
{"speed": 0.2599999904632568, "lat": 39.81005539190006, "user": "401", "long": -75.75387588709197, "time": "2017-07-01T12:25:50.000-0400"}
{"speed": 19.68000030517578, "lat": 39.79962695539032, "user": "401", "long": -75.73020127433864, "time": "2017-07-01T12:35:52.000-0400"}
{"speed": 14.73999977111816, "lat": 39.75548941180087, "user": "401", "long": -75.72357304401297, "time": "2017-07-01T12:45:53.996-0400"}
{"speed": 7.170000076293945, "lat": 39.68297418409408, "user": "401", "long": -75.75438357079422, "time": "2017-07-01T12:56:00.000-0400"}
{"speed": 0.2300000041723251, "lat": 39.6819412708652, "user": "401", "long": -75.75631778694294, "time": "2017-07-01T14:38:57.935-0400"}
{"speed": -1, "lat": 39.68035816049589, "user": "401", "long": -75.73419866146472, "time": "2017-07-01T15:37:18.972-0400"}
{"speed": -1, "lat": 39.68035938023937, "user": "401", "long": -75.73416332285007, "time": "2017-07-01T15:47:34.848-0400"}
{"speed": -1, "lat": 39.6830854260562, "user": "401", "long": -75.74567264968526, "time": "2017-07-01T18:18:27.072-0400"}
