{"speed": 13.52000045776367, "lat": 39.62564762990179, "user": "401", "long": -75.74413200392661, "time": "2017-06-29T09:32:51.000-0400"}
{"speed": 14.07999992370605, "lat": 39.55789615621114, "user": "401", "long": -75.73715365583595, "time": "2017-06-29T09:42:51.999-0400"}
{"speed": 0.2700000107288361, "lat": 39.54815666660624, "user": "401", "long": -75.70576342761116, "time": "2017-06-29T09:53:46.000-0400"}
{"speed": -1, "lat": 39.54804668058856, "user": "401", "long": -75.70567951706167, "time": "2017-06-29T10:09:36.158-0400"}
{"speed": -1, "lat": 39.5480034851402, "user": "401", "long": -75.70571815458267, "time": "2017-06-29T11:03:00.205-0400"}
