{"user": "503", "long": -75.75121698006902, "time": "2017-07-08T20:28:29.291-0400", "lat": 39.67147918729604, "speed": -1}
{"user": "503", "long": -75.75116794972264, "time": "2017-07-08T21:45:12.545-0400", "lat": 39.6713115758515, "speed": -1}
{"user": "503", "long": -75.74479795068106, "time": "2017-07-08T21:55:40.000-0400", "lat": 39.67319806575745, "speed": 0.9200000166893005}
