{"outdoors": "default", "user": "405", "time": "2017-06-27T16:42:08.000-0400", "lat": 39.68457335609913, "long": -75.75094582520029, "location_label": "work"}
{"outdoors": "default", "user": "405", "time": "2017-06-27T16:42:18.000-0400", "lat": 39.68457784041733, "long": -75.75107658288977, "location_label": "gym"}
{"outdoors": "default", "user": "405", "time": "2017-06-27T18:56:02.000-0400", "lat": 39.72986274868224, "long": -75.71093279875416, "location_label": "home"}
