{"user": "502", "long": -75.75164219371578, "location_label": "work", "outdoors": "default", "time": "2017-07-07T11:17:11.000-0400", "lat": 39.68430375218362}
{"user": "502", "long": -75.7515774854233, "location_label": "gym", "outdoors": "default", "time": "2017-07-07T11:17:12.000-0400", "lat": 39.68422730922669}
{"user": "502", "long": -75.75398394133857, "location_label": "STAR Work 2", "outdoors": false, "time": "2017-07-07T13:06:17.875-0400", "lat": 39.66549155193774}
{"user": "502", "long": -75.75398394133857, "location_label": "STAR Work 2", "outdoors": false, "time": "2017-07-07T13:06:17.875-0400", "lat": 39.66549155193774}
{"user": "502", "long": -75.75398394133857, "location_label": "STAR Work 2", "outdoors": false, "time": "2017-07-07T13:06:17.875-0400", "lat": 39.66549155193774}
{"user": "502", "long": -75.55874694145803, "location_label": "restaurant", "outdoors": "default", "time": "2017-07-07T16:24:53.000-0400", "lat": 39.73632435783719}
