{"speed": 0, "lat": 43.28154154125907, "user": "402", "long": -75.39559680044222, "time": "2017-06-29T09:54:53.451-0400"}
{"speed": 0.5600000023841858, "lat": 43.28167498115756, "user": "402", "long": -75.39507578134108, "time": "2017-06-29T14:17:16.000-0400"}
{"speed": -1, "lat": 43.20991508594332, "user": "402", "long": -75.45357784083768, "time": "2017-06-29T15:24:51.104-0400"}
{"speed": -1, "lat": 43.22537979843314, "user": "402", "long": -75.45888818513785, "time": "2017-06-29T15:57:44.277-0400"}
{"speed": -1, "lat": 43.28173280424575, "user": "402", "long": -75.39507828857246, "time": "2017-06-29T18:33:01.477-0400"}
{"speed": -1, "lat": 43.28173149069912, "user": "402", "long": -75.3950774850983, "time": "2017-06-29T19:58:31.648-0400"}
{"speed": 0.75, "lat": 43.28228727918424, "user": "402", "long": -75.39341499104667, "time": "2017-06-29T20:08:38.000-0400"}
{"speed": -1, "lat": 43.23986343025489, "user": "402", "long": -75.43709606289467, "time": "2017-06-29T20:27:16.558-0400"}
{"speed": -1, "lat": 43.2263064053694, "user": "402", "long": -75.44511464776676, "time": "2017-06-29T20:41:36.528-0400"}
