{"speed": -1, "lat": 43.21292480690057, "user": "402", "long": -75.45490477644925, "time": "2017-07-02T07:55:24.691-0400"}
{"speed": -1, "lat": 43.21365332162065, "user": "402", "long": -75.45246547302129, "time": "2017-07-02T08:45:33.818-0400"}
{"speed": 3.619999885559082, "lat": 43.23854418009821, "user": "402", "long": -75.4370986205297, "time": "2017-07-02T08:59:04.000-0400"}
{"speed": -1, "lat": 43.22267548852641, "user": "402", "long": -75.44712347959315, "time": "2017-07-02T16:25:12.960-0400"}
