{"speed": -1, "lat": 39.65646729449819, "user": "402", "long": -75.65259178036605, "time": "2017-06-28T09:21:24.608-0400"}
{"speed": -1, "lat": 39.68405290722697, "user": "402", "long": -75.75176044585378, "time": "2017-06-28T10:45:57.156-0400"}
{"speed": -1, "lat": 39.6839414734, "user": "402", "long": -75.75181572143346, "time": "2017-06-28T13:07:22.743-0400"}
