{"speed": -1, "lat": 43.22532255742873, "user": "402", "long": -75.45895506268587, "time": "2017-07-01T09:10:59.446-0400"}
{"speed": 12.10000038146973, "lat": 43.22914274413439, "user": "402", "long": -75.45193148783916, "time": "2017-07-01T11:45:07.000-0400"}
{"speed": 25.13999938964844, "lat": 43.2707305625484, "user": "402", "long": -75.43035328395239, "time": "2017-07-01T11:55:08.000-0400"}
{"speed": -1, "lat": 43.21561294635087, "user": "402", "long": -75.54058966408735, "time": "2017-07-01T12:20:30.056-0400"}
{"speed": 11.97999954223633, "lat": 43.21840405933858, "user": "402", "long": -75.33529001295132, "time": "2017-07-01T13:03:39.000-0400"}
{"speed": 26.10000038146973, "lat": 43.13427791469091, "user": "402", "long": -75.26622841141676, "time": "2017-07-01T13:13:40.000-0400"}
{"speed": -1, "lat": 43.22425551332758, "user": "402", "long": -75.45766983649419, "time": "2017-07-01T14:24:10.872-0400"}
{"speed": -1, "lat": 43.22594051888902, "user": "402", "long": -75.42837296349505, "time": "2017-07-01T15:02:39.332-0400"}
