{"speed": 1.120000004768372, "lat": 39.68615795489372, "user": "305", "long": -75.74167636230192, "time": "2017-06-20T06:42:58.000-0400"}
{"speed": 1.210000038146973, "lat": 39.6835742751506, "user": "305", "long": -75.74705838232836, "time": "2017-06-20T06:53:16.000-0400"}
{"speed": 1.470000028610229, "lat": 39.68333715110987, "user": "305", "long": -75.7491318137159, "time": "2017-06-20T07:03:28.000-0400"}
{"speed": -1, "lat": 39.68410837643368, "user": "305", "long": -75.74358876646714, "time": "2017-06-20T07:13:32.562-0400"}
{"speed": 2.339298515452371e-05, "lat": 39.68568341734375, "user": "305", "long": -75.7417037259663, "time": "2017-06-20T07:24:58.000-0400"}
{"speed": -1, "lat": 39.68096975689038, "user": "305", "long": -75.75242695986292, "time": "2017-06-20T10:15:15.077-0400"}
{"speed": -1, "lat": 39.68312964065825, "user": "305", "long": -75.74980428925345, "time": "2017-06-20T15:55:38.555-0400"}
{"speed": 0, "lat": 39.68288201376766, "user": "305", "long": -75.74984134181938, "time": "2017-06-20T16:14:19.000-0400"}
{"speed": -1, "lat": 39.67853139620196, "user": "305", "long": -75.75250871791073, "time": "2017-06-20T19:13:01.105-0400"}
{"speed": 0.4799999892711639, "lat": 39.67849350072414, "user": "305", "long": -75.75266336097917, "time": "2017-06-20T19:37:01.000-0400"}
{"speed": -1, "lat": 39.6770345852431, "user": "305", "long": -75.76539443680294, "time": "2017-06-20T20:05:38.221-0400"}
{"speed": 3.200000047683716, "lat": 39.67455048583417, "user": "305", "long": -75.75554078451894, "time": "2017-06-20T20:15:43.000-0400"}
{"speed": 1.039999961853027, "lat": 39.67208465564966, "user": "305", "long": -75.74871355674765, "time": "2017-06-20T20:25:56.000-0400"}
{"speed": 1.690000057220459, "lat": 39.6711359918487, "user": "305", "long": -75.76097485616408, "time": "2017-06-20T20:36:12.000-0400"}
{"speed": 1.419999957084656, "lat": 39.67597641520172, "user": "305", "long": -75.76441495686375, "time": "2017-06-20T20:46:20.000-0400"}
{"speed": 0.7699999809265137, "lat": 39.67743461489647, "user": "305", "long": -75.76661830775045, "time": "2017-06-20T20:56:52.000-0400"}
{"speed": -1, "lat": 39.68549425480132, "user": "305", "long": -75.7432077722115, "time": "2017-06-20T21:29:13.304-0400"}
{"speed": 0.9800000190734863, "lat": 39.68555797826469, "user": "305", "long": -75.74267841882607, "time": "2017-06-20T21:39:19.000-0400"}
