{"speed": -1, "lat": 39.68425877469554, "time": "2017-06-07T15:23:51.258-0400", "long": -75.75196310639565, "user": "301"}
{"speed": 2.440000057220459, "lat": 39.68717048879684, "time": "2017-06-07T15:33:52.000-0400", "long": -75.74728343642852, "user": "301"}
{"speed": 2.75, "lat": 39.67361791528731, "time": "2017-06-07T15:43:53.000-0400", "long": -75.74258278131089, "user": "301"}
{"speed": 2.759999990463257, "lat": 39.66896818023144, "time": "2017-06-07T15:54:01.000-0400", "long": -75.76091257862352, "user": "301"}
{"speed": 2.920000076293945, "lat": 39.6793673979488, "time": "2017-06-07T16:04:05.000-0400", "long": -75.7563721016755, "user": "301"}
{"speed": 0, "lat": 39.68454020567209, "time": "2017-06-07T16:18:51.000-0400", "long": -75.75136902749142, "user": "301"}
