{"speed": 1.850000023841858, "user": "107", "long": -75.75232825249037, "time": "2017-05-11T08:02:40.000-0400", "lat": 39.68284894715965}
{"speed": -1, "user": "107", "long": -75.74474419295409, "time": "2017-05-11T08:27:20.381-0400", "lat": 39.67735530723932}
{"speed": -1, "user": "107", "long": -75.74882458188003, "time": "2017-05-11T21:39:46.287-0400", "lat": 39.67537305536727}
