{"speed": -1, "user": "107", "long": -75.75425688129027, "time": "2017-05-09T09:29:12.167-0400", "lat": 39.68145755461828}
{"speed": -1, "user": "107", "long": -75.7488531413953, "time": "2017-05-09T11:03:37.140-0400", "lat": 39.67537099446348}
{"speed": -1, "user": "107", "long": -75.74919153095168, "time": "2017-05-09T11:24:31.240-0400", "lat": 39.6754966495585}
