{"speed": -1, "user": "106", "long": -75.75240129641288, "time": "2017-05-08T10:03:01.140-0400", "lat": 39.68054910921146}
{"speed": 0.4300000071525574, "user": "106", "long": -75.74654163799784, "time": "2017-05-08T10:16:14.000-0400", "lat": 39.68386881522805}
{"speed": -1, "user": "106", "long": -75.74821235564677, "time": "2017-05-08T10:42:26.177-0400", "lat": 39.68325382192354}
{"speed": -1, "user": "106", "long": -75.74555042061394, "time": "2017-05-08T10:53:15.745-0400", "lat": 39.67850520348441}
{"speed": -1, "user": "106", "long": -75.74554981999998, "time": "2017-05-08T13:54:26.759-0400", "lat": 39.67850866999999}
{"speed": 1.320000052452087, "user": "106", "long": -75.75054902590415, "time": "2017-05-08T14:04:31.000-0400", "lat": 39.68317567374527}
{"speed": -1, "user": "106", "long": -75.75640769609697, "time": "2017-05-08T14:37:56.085-0400", "lat": 39.68246251414917}
{"speed": -1, "user": "106", "long": -75.75198109980074, "time": "2017-05-08T20:57:02.414-0400", "lat": 39.68311384707611}
{"speed": -1, "user": "106", "long": -75.74547070002053, "time": "2017-05-08T21:29:59.127-0400", "lat": 39.68203208924542}
