{"outdoors": "default", "user": "402", "time": "2017-06-29T09:54:53.554-0400", "lat": 43.28154154125907, "long": -75.39559680044222, "location_label": "home--someone else"}
{"outdoors": false, "user": "402", "time": "2017-06-29T15:24:56.000-0400", "lat": 43.20992153141946, "long": -75.45360929339701, "location_label": "nail salon"}
{"outdoors": "default", "user": "402", "time": "2017-06-29T15:57:46.143-0400", "lat": 43.225387856225, "long": -75.45901976062541, "location_label": "home"}
{"outdoors": "default", "user": "402", "time": "2017-06-29T18:33:14.942-0400", "lat": 43.28178361062266, "long": -75.39550719789732, "location_label": "home--someone else"}
{"outdoors": "default", "user": "402", "time": "2017-06-29T20:43:29.395-0400", "lat": 43.22677946653518, "long": -75.44137909084134, "location_label": "home--someone else"}
