{"speed": -1, "user": "110", "long": -75.75180717971791, "time": "2017-05-08T09:00:50.431-0400", "lat": 39.68422497989295}
{"speed": -1, "user": "110", "long": -75.75057031675982, "time": "2017-05-08T09:11:04.880-0400", "lat": 39.68372911760271}
{"speed": -1, "user": "110", "long": -75.86649661999998, "time": "2017-05-08T09:51:26.095-0400", "lat": 39.61890219999999}
{"speed": -1, "user": "110", "long": -75.76027640304639, "time": "2017-05-08T10:35:31.517-0400", "lat": 39.67814281917111}
{"speed": -1, "user": "110", "long": -75.74594537769059, "time": "2017-05-08T11:55:05.703-0400", "lat": 39.67861567887809}
{"speed": 0, "user": "110", "long": -75.75090316131315, "time": "2017-05-08T12:07:11.000-0400", "lat": 39.66495190750776}
{"speed": -1, "user": "110", "long": -75.7508742262458, "time": "2017-05-08T12:31:33.174-0400", "lat": 39.66500900867688}
{"speed": 1.590000033378601, "user": "110", "long": -75.75091975748143, "time": "2017-05-08T12:44:07.000-0400", "lat": 39.66484147593348}
{"speed": -1, "user": "110", "long": -75.75089027391114, "time": "2017-05-08T17:10:56.356-0400", "lat": 39.67697569029504}
{"speed": -1, "user": "110", "long": -75.76026037119154, "time": "2017-05-08T19:31:06.885-0400", "lat": 39.67957828986054}
{"speed": 2.329999923706055, "user": "110", "long": -75.76012778102957, "time": "2017-05-08T19:44:53.000-0400", "lat": 39.67824300754785}
