{"speed": -1, "user": "110", "long": -75.75938948815684, "time": "2017-05-11T10:54:50.167-0400", "lat": 39.67939071965568}
{"speed": 0, "user": "110", "long": -75.65861304960667, "time": "2017-05-11T11:41:48.847-0400", "lat": 39.72352597208373}
{"speed": -1, "user": "110", "long": -75.62452217473586, "time": "2017-05-11T11:58:24.956-0400", "lat": 39.74068522997316}
{"speed": 0.2199999988079071, "user": "110", "long": -75.76031587093674, "time": "2017-05-11T14:50:20.887-0400", "lat": 39.67798450965404}
{"speed": -1, "user": "110", "long": -75.75510283744053, "time": "2017-05-11T15:21:49.180-0400", "lat": 39.6831211240778}
{"speed": -1, "user": "110", "long": -75.75429581085332, "time": "2017-05-11T15:34:56.338-0400", "lat": 39.68698398149267}
{"speed": -1, "user": "110", "long": -75.7456845009133, "time": "2017-05-11T17:03:51.815-0400", "lat": 39.67859152075975}
{"speed": 1.529999971389771, "user": "110", "long": -75.74919803075096, "time": "2017-05-11T17:56:36.000-0400", "lat": 39.68333384025812}
{"speed": -1, "user": "110", "long": -75.75403767847367, "time": "2017-05-11T18:12:19.938-0400", "lat": 39.68375401960179}
{"speed": -1, "user": "110", "long": -75.75316099253502, "time": "2017-05-11T18:27:25.363-0400", "lat": 39.68276124154647}
{"speed": 0.800000011920929, "user": "110", "long": -75.76020673855744, "time": "2017-05-11T18:42:47.000-0400", "lat": 39.67803023293584}
{"speed": 14.80000019073486, "user": "110", "long": -75.75309083804092, "time": "2017-05-11T20:32:59.170-0400", "lat": 39.67026272326677}
{"speed": 6.53000020980835, "user": "110", "long": -75.75368260880266, "time": "2017-05-11T20:43:08.000-0400", "lat": 39.6744174186015}
