{"lat": 39.6794381933647, "user": "206", "speed": -1, "time": "2017-05-19T12:08:04.475-0400", "long": -75.74980408759467}
{"lat": 39.6806298876488, "user": "206", "speed": -1, "time": "2017-05-19T14:00:44.775-0400", "long": -75.75431058695686}
{"lat": 39.67816836670011, "user": "206", "speed": 0.6899999976158142, "time": "2017-05-19T14:11:42.000-0400", "long": -75.75252673595747}
{"lat": 39.68144779858901, "user": "206", "speed": -1, "time": "2017-05-19T15:29:02.312-0400", "long": -75.75425727494074}
{"lat": 39.68144915339221, "user": "206", "speed": -1, "time": "2017-05-19T15:59:32.220-0400", "long": -75.75425349352236}
{"lat": 39.67943147759855, "user": "206", "speed": 1.480000019073486, "time": "2017-05-19T16:09:41.000-0400", "long": -75.7478695829173}
