{"lat": 39.68333480417699, "user": "206", "speed": 0.4099999964237213, "time": "2017-05-17T16:38:41.000-0400", "long": -75.74996723800501}
{"lat": 39.67964018698752, "user": "206", "speed": 1.409999966621399, "time": "2017-05-17T16:48:46.000-0400", "long": -75.74977621443173}
{"lat": 39.665269665457, "user": "206", "speed": 1.970000028610229, "time": "2017-05-17T21:52:09.000-0400", "long": -75.75096108026406}
{"lat": 39.67965933963627, "user": "206", "speed": 2.509999990463257, "time": "2017-05-17T22:05:45.000-0400", "long": -75.74594484649202}
