{"speed": -1, "lat": 39.69395601950015, "user": "404", "long": -75.7142651361802, "time": "2017-07-01T08:44:53.887-0400"}
{"speed": 1.590000033378601, "lat": 39.69294574581058, "user": "404", "long": -75.72353624745804, "time": "2017-07-01T08:55:04.000-0400"}
{"speed": 1.5, "lat": 39.68858045063884, "user": "404", "long": -75.73433389894267, "time": "2017-07-01T09:05:18.000-0400"}
{"speed": 1.570000052452087, "lat": 39.68727903444291, "user": "404", "long": -75.74557486928603, "time": "2017-07-01T09:15:23.000-0400"}
{"speed": 1.799999952316284, "lat": 39.69465909063788, "user": "404", "long": -75.75035054243705, "time": "2017-07-01T09:25:38.000-0400"}
{"speed": 1.360000014305115, "lat": 39.68905495017738, "user": "404", "long": -75.74845908216736, "time": "2017-07-01T09:35:46.000-0400"}
{"speed": 1.659999966621399, "lat": 39.68678751964093, "user": "404", "long": -75.73814162991543, "time": "2017-07-01T09:45:54.998-0400"}
{"speed": 1.629999995231628, "lat": 39.69074805270851, "user": "404", "long": -75.72827436968286, "time": "2017-07-01T09:56:06.000-0400"}
{"speed": 1.600000023841858, "lat": 39.69516418412299, "user": "404", "long": -75.71741385392446, "time": "2017-07-01T10:06:20.998-0400"}
{"speed": 0, "lat": 39.69393187671871, "user": "404", "long": -75.71424800909656, "time": "2017-07-01T23:19:12.000-0400"}
