{"location_label": "work", "lat": 39.68452733945072, "user": "308", "time": "2017-06-13T15:37:28.003-0400", "long": -75.75116157538793, "outdoors": "default"}
{"location_label": "gym", "lat": 39.68452733945072, "user": "308", "time": "2017-06-13T15:37:28.003-0400", "long": -75.75116157538793, "outdoors": "default"}
{"location_label": "home", "lat": 39.67744643337994, "user": "308", "time": "2017-06-13T16:32:03.002-0400", "long": -75.78449137515926, "outdoors": "default"}
{"location_label": "park", "lat": 39.69211015388341, "user": "308", "time": "2017-06-13T19:40:20.000-0400", "long": -75.74600284926197, "outdoors": "default"}
{"location_label": "park", "lat": 39.68787075707627, "user": "308", "time": "2017-06-13T20:35:13.000-0400", "long": -75.74778011937983, "outdoors": "default"}
