{"user": "406", "long": 0, "location_label": "work", "outdoors": "default", "time": "2017-07-10T14:12:10.220-0400", "lat": 0}
{"user": "406", "long": 0, "location_label": "gym", "outdoors": "default", "time": "2017-07-10T14:12:10.220-0400", "lat": 0}
{"user": "406", "long": 0, "location_label": "gym", "outdoors": "default", "time": "2017-07-10T14:12:10.220-0400", "lat": 0}
{"user": "406", "long": 0, "location_label": "home", "outdoors": "default", "time": "2017-07-10T21:44:50.807-0400", "lat": 0}
