{"user": "504", "long": -75.18459965481905, "location_label": "30th street station -Megabus ", "outdoors": true, "time": "2017-07-10T08:35:21.016-0400", "lat": 39.95610837828364}
{"user": "504", "long": -76.46908801056115, "location_label": "Baltimore megabus station ", "outdoors": true, "time": "2017-07-10T11:27:32.268-0400", "lat": 39.37257218178303}
{"user": "504", "long": -77.00590305968839, "location_label": "union station D.C. ", "outdoors": false, "time": "2017-07-10T12:43:15.000-0400", "lat": 38.89834145087646}
{"user": "504", "long": -77.03270470509699, "location_label": "holocaust memorial museum ", "outdoors": false, "time": "2017-07-10T13:38:35.968-0400", "lat": 38.88673002830292}
{"user": "504", "long": -77.02400168411157, "location_label": "Air & Space museum ", "outdoors": false, "time": "2017-07-10T15:51:58.000-0400", "lat": 38.88749086767331}
