{"location_label": "school", "long": -75.75117181820234, "user": "110", "lat": 39.68449542061941, "outdoors": "default", "time": "2017-05-09T09:25:55.934-0400"}
{"location_label": "home", "long": -75.76031229664355, "user": "110", "lat": 39.67801789291399, "outdoors": "default", "time": "2017-05-09T10:43:51.739-0400"}
{"location_label": "school", "long": -75.7527479075953, "user": "110", "lat": 39.68044494896894, "outdoors": "default", "time": "2017-05-09T13:49:10.475-0400"}
{"location_label": "home", "long": -75.76087620116375, "user": "110", "lat": 39.67858151070744, "outdoors": "default", "time": "2017-05-09T16:36:18.000-0400"}
{"location_label": "home", "long": -75.76030933305226, "user": "110", "lat": 39.6780436020714, "outdoors": "default", "time": "2017-05-09T17:51:59.117-0400"}
{"location_label": "Main Street errand", "long": -75.75158955536386, "user": "110", "lat": 39.68324025630921, "outdoors": false, "time": "2017-05-09T18:52:52.183-0400"}
{"location_label": "Main Street errand", "long": -75.75168217539391, "user": "110", "lat": 39.68317856550187, "outdoors": false, "time": "2017-05-09T18:53:17.000-0400"}
{"location_label": "home", "long": -75.76116922175956, "user": "110", "lat": 39.67864418781634, "outdoors": "default", "time": "2017-05-09T18:56:50.000-0400"}
{"location_label": "school", "long": -75.74927598245046, "user": "110", "lat": 39.67586644463211, "outdoors": "default", "time": "2017-05-09T21:39:57.000-0400"}
{"location_label": "home", "long": -75.75994119986497, "user": "110", "lat": 39.67797428373217, "outdoors": "default", "time": "2017-05-09T23:09:43.035-0400"}
