{"speed": -1, "user": "104", "long": -75.75256310653701, "time": "2017-05-07T13:55:49.125-0400", "lat": 39.68422444414214}
{"speed": 2.740000009536743, "user": "104", "long": -75.74803940027556, "time": "2017-05-07T14:07:09.000-0400", "lat": 39.68341275587648}
{"speed": -1, "user": "104", "long": -75.74604810633271, "time": "2017-05-07T14:48:31.403-0400", "lat": 39.68098460790208}
{"speed": -1, "user": "104", "long": -75.75342102960012, "time": "2017-05-07T16:04:50.749-0400", "lat": 39.68095523653857}
