{"lat": 39.68231071842792, "user": "201", "speed": -1, "time": "2017-05-16T10:07:35.773-0400", "long": -75.74765337756378}
{"lat": 39.6846857527805, "user": "201", "speed": -1, "time": "2017-05-16T14:08:07.728-0400", "long": -75.75481164540619}
{"lat": 39.68290732711524, "user": "201", "speed": 0, "time": "2017-05-16T15:11:18.000-0400", "long": -75.75423723093769}
{"lat": 39.68232314308284, "user": "201", "speed": -1, "time": "2017-05-16T16:52:44.803-0400", "long": -75.74768045698299}
{"lat": 39.67303142868764, "user": "201", "speed": -1, "time": "2017-05-16T18:49:12.295-0400", "long": -75.74644153715754}
{"lat": 39.6834091097486, "user": "201", "speed": 0, "time": "2017-05-16T19:38:36.391-0400", "long": -75.74982332072756}
{"lat": 39.6862969268483, "user": "201", "speed": 0.2199999988079071, "time": "2017-05-16T21:54:34.000-0400", "long": -75.74420409284136}
