{"lat": 39.68435537019145, "user": "201", "speed": -1, "time": "2017-05-18T18:08:40.485-0400", "long": -75.75844817637042}
{"lat": 39.68225663997203, "user": "201", "speed": 0.1700000017881393, "time": "2017-05-18T18:23:55.000-0400", "long": -75.74765299453935}
{"lat": 39.68242592090518, "user": "201", "speed": -1, "time": "2017-05-18T18:48:21.539-0400", "long": -75.74776137212079}
