{"lat": 39.6879838435581, "user": "203", "speed": 13.81999969482422, "time": "2017-05-22T10:42:45.000-0400", "long": -75.74787160831653}
{"lat": 39.68223354782879, "user": "203", "speed": 0.7900000214576721, "time": "2017-05-22T10:52:46.000-0400", "long": -75.75400798588595}
{"lat": 39.68048231823861, "user": "203", "speed": -1, "time": "2017-05-22T11:22:26.310-0400", "long": -75.75446216852812}
{"lat": 39.72082592595208, "user": "203", "speed": -1, "time": "2017-05-22T12:58:19.546-0400", "long": -75.7026982441935}
