{"lat": 39.68455386817426, "time": "2017-05-16T12:58:39.000-0400", "outdoors": "default", "long": -75.7511213422527, "user": "206", "location_label": "gym"}
{"lat": 39.68454360034287, "time": "2017-05-16T12:59:15.000-0400", "outdoors": "default", "long": -75.75110927231214, "user": "206", "location_label": "school"}
{"lat": 39.67988931608359, "time": "2017-05-16T14:13:02.919-0400", "outdoors": "default", "long": -75.74591120349169, "user": "206", "location_label": "home"}
{"lat": 39.66531966350941, "time": "2017-05-16T14:29:35.998-0400", "outdoors": false, "long": -75.7540089078953, "user": "206", "location_label": "physical therapy office "}
{"lat": 39.68258248645783, "time": "2017-05-16T19:58:49.000-0400", "outdoors": false, "long": -75.73514736264546, "user": "206", "location_label": "grocery store"}
