{"speed": 1.340000033378601, "lat": 39.67813555154919, "user": "309", "long": -75.77736876912022, "time": "2017-06-18T18:54:04.000-0400"}
{"speed": 1.110000014305115, "lat": 39.67900500636518, "user": "309", "long": -75.76941065497302, "time": "2017-06-18T19:04:13.000-0400"}
{"speed": 1.220000028610229, "lat": 39.68053390741319, "user": "309", "long": -75.76142211451732, "time": "2017-06-18T19:14:15.000-0400"}
{"speed": 1.389999985694885, "lat": 39.68038173396111, "user": "309", "long": -75.75486922643682, "time": "2017-06-18T19:24:24.000-0400"}
{"speed": -1, "lat": 39.68331954026187, "user": "309", "long": -75.75044067284321, "time": "2017-06-18T19:45:33.183-0400"}
{"speed": 0.7799999713897705, "lat": 39.68150868084252, "user": "309", "long": -75.75367371558747, "time": "2017-06-18T19:56:03.000-0400"}
{"speed": 1.259999990463257, "lat": 39.68103263065189, "user": "309", "long": -75.75925799093746, "time": "2017-06-18T20:06:13.000-0400"}
{"speed": 1.120000004768372, "lat": 39.67937904879421, "user": "309", "long": -75.76612788259588, "time": "2017-06-18T20:16:14.000-0400"}
{"speed": 0.7200000286102295, "lat": 39.67873070858389, "user": "309", "long": -75.77378676279986, "time": "2017-06-18T20:26:17.000-0400"}
{"speed": 0.6299999952316284, "lat": 39.67759156603336, "user": "309", "long": -75.78104632913673, "time": "2017-06-18T20:36:18.000-0400"}
{"speed": -1, "lat": 39.67727782127731, "user": "309", "long": -75.7843226921524, "time": "2017-06-18T20:52:06.699-0400"}
